CombiningTables
…
top %>% as_tibble()

## # A tibble: 3 x 1
##   playerID 
##   <chr>    
## 1 arenano01
## 2 bryankr01
## 3 trumbma01

awards <- AwardsPlayers %>% filter(yearID == 2016) %>% group_by(playerID) %>% tally() %>% select(playerID)
awards %>% as_tibble()

## # A tibble: 47 x 1
##    playerID 
##    <chr>    
##  1 altuvjo01
##  2 arenano01
##  3 arrieja01
##  4 baezja01 
##  5 beltrad01
##  6 bettsmo01
##  7 blackch02
##  8 bogaexa01
##  9 bradlja02
## 10 brittza01
## # ... with 37 more rows

setdiff(awards, top)

## # A tibble: 44 x 1
##    playerID 
##    <chr>    
##  1 altuvjo01
##  2 arrieja01
##  3 baezja01 
##  4 beltrad01
##  5 bettsmo01
##  6 blackch02
##  7 bogaexa01
##  8 bradlja02
##  9 brittza01
## 10 cabremi01
## # ... with 34 more rows
